{
  "images" : [
    {
      "idiom" : "universal",
      "filename" : "iconfinder_radio-button-off_326676-2.png",
      "scale" : "1x"
    },
    {
      "idiom" : "universal",
      "filename" : "iconfinder_radio-button-off_326676-1.png",
      "scale" : "2x"
    },
    {
      "idiom" : "universal",
      "filename" : "iconfinder_radio-button-off_326676.png",
      "scale" : "3x"
    }
  ],
  "info" : {
    "version" : 1,
    "author" : "xcode"
  },
  "properties" : {
    "template-rendering-intent" : "template"
  }
}